…
```r
# Count number of instances a gene name appears
data %>%
  group_by(Gene_name) %>%
  summarise(n = n()) %>%
  dplyr::filter(n > 1) %>%
  arrange()
```

```
## # A tibble: 36 x 2
##    Gene_name     n
##    <chr>     <int>
##  1 ATP5F1C       2
##  2 C4BPA         2
##  3 CALU          2
##  4 CAP1          2
##  5 CKM           2
##  6 CMBL          2
##  7 COL14A1       2
##  8 CRK           2
##  9 EPB41L2       2
## 10 EPB41L3       2
## # ... with 26 more rows
```
…
