…
```r
# Count number of instances a gene name appears
data %>%
  group_by(Gene_name) %>%
  summarise(n = n()) %>%
  dplyr::filter(n > 1) %>%
  arrange()
```

```
## # A tibble: 36 x 2
##    Gene_name     n
##    <chr>     <int>
##  1 ATP5F1C       2
##  2 C4BPA         2
##  3 CALU          2
##  4 CAP1          2
##  5 CKM           2
##  6 CMBL          2
##  7 COL14A1       2
##  8 CRK           2
##  9 EPB41L2       2
## 10 EPB41L3       2
## # ... with 26 more rows
```
…
```r
# Extract p-values and more
anova_results <- adipose_anova %>%
  unnest(tidy_anova) %>% 
  dplyr::filter(term != "Residuals")

anova_results
```

```
## # A tibble: 5,823 x 7
##    name  term               df   sumsq  meansq statistic  p.value
##    <chr> <chr>           <dbl>   <dbl>   <dbl>     <dbl>    <dbl>
##  1 A1BG  genotype            1 0.685   0.685      6.62   0.0221  
##  2 A1BG  tissue              1 0.0999  0.0999     0.965  0.343   
##  3 A1BG  genotype:tissue     1 0.00116 0.00116    0.0112 0.917   
##  4 A2M   genotype            1 0.289   0.289      2.24   0.157   
##  5 A2M   tissue              1 3.01    3.01      23.2    0.000272
##  6 A2M   genotype:tissue     1 0.144   0.144      1.11   0.310   
##  7 AACS  genotype            1 5.64    5.64       2.86   0.113   
##  8 AACS  tissue              1 1.70    1.70       0.861  0.369   
##  9 AACS  genotype:tissue     1 0.393   0.393      0.200  0.662   
## 10 ABCA9 genotype            1 0.178   0.178      0.440  0.518   
## # ... with 5,813 more rows
```
…
